[
  {
    "fields": {
      "status": "AC",
      "changed_by": 1,
      "fy": "2015",
      "desc": "A procurement audit. This is a example audit to show the features of this tool",
      "end_date": "2015-03-03",
      "changed_on": "2015-12-16T07:54:21.915Z",
      "title": "Procurement",
      "start_date": "2015-02-02"
    },
    "model": "audits.audit",
    "pk": 1
  },
  {
    "fields": {
      "audit": 1,
      "changed_on": "2015-12-16T09:08:35.092Z",
      "changed_by": 1,
      "title": "Purchasing Finished Goods",
      "desc": ""
    },
    "model": "audits.process",
    "pk": 1
  },
  {
    "fields": {
      "audit": 1,
      "changed_on": "2015-12-16T09:08:51.991Z",
      "changed_by": 1,
      "title": "Purchasing Raw Materials",
      "desc": ""
    },
    "model": "audits.process",
    "pk": 2
  },
  {
    "fields": {
      "audit": 1,
      "changed_on": "2015-12-16T09:09:33.022Z",
      "changed_by": 1,
      "title": "Inventory (Stock)",
      "desc": ""
    },
    "model": "audits.process",
    "pk": 3
  },
  {
    "fields": {
      "audit": 1,
      "changed_on": "2015-12-16T09:10:05.195Z",
      "changed_by": 1,
      "title": "Accounts Payable and Disbursements",
      "desc": ""
    },
    "model": "audits.process",
    "pk": 4
  },
  {
    "fields": {
      "changed_on": "2015-12-16T09:11:01.907Z",
      "desc": "",
      "changed_by": 1,
      "audit": 1,
      "title": "Master data is up to date",
      "process": [
        1
      ]
    },
    "model": "audits.objective",
    "pk": 1
  },
  {
    "fields": {
      "changed_on": "2015-12-16T09:12:37.944Z",
      "desc": "Defective parts that are purchased have to be returned to the suppliers in a timely fashion",
      "changed_by": 1,
      "audit": 1,
      "title": "Defects are returned timely",
      "process": [
        3
      ]
    },
    "model": "audits.objective",
    "pk": 2
  },
  {
    "fields": {
      "changed_on": "2015-12-16T09:13:46.472Z",
      "desc": "Purchase orders are entered into the system accurately and timely.",
      "changed_by": 1,
      "audit": 1,
      "title": "POs are entered accurately",
      "process": [
        4
      ]
    },
    "model": "audits.objective",
    "pk": 3
  },
  {
    "fields": {
      "changed_on": "2015-12-16T09:14:42.422Z",
      "desc": "All purchase orders are entered into the ERP system.",
      "changed_by": 1,
      "audit": 1,
      "title": "PO are all entered into the system",
      "process": [
        2
      ]
    },
    "model": "audits.objective",
    "pk": 4
  },
  {
    "fields": {
      "changed_on": "2015-12-16T09:23:24.202Z",
      "objective": [
        2
      ],
      "desc": "Defects that are not returned show incorrect stock values and incorrect financials",
      "changed_by": 1,
      "audit": 1,
      "title": "Incorrect stock values"
    },
    "model": "audits.risk",
    "pk": 1
  },
  {
    "fields": {
      "changed_on": "2015-12-16T09:25:12.157Z",
      "objective": [
        3
      ],
      "desc": "POs that have incorrect information tend to delay the purchasing process and also creates vendor dissatisfaction",
      "changed_by": 1,
      "audit": 1,
      "title": "Delays and Vendor dissatisfaction"
    },
    "model": "audits.risk",
    "pk": 2
  },
  {
    "fields": {
      "changed_on": "2015-12-16T09:26:16.187Z",
      "objective": [
        4
      ],
      "desc": "There is a deal of fraud that can happen when some of the POs are allowed to be skipped from being entered into the system.",
      "changed_by": 1,
      "audit": 1,
      "title": "Purchasing fraud"
    },
    "model": "audits.risk",
    "pk": 3
  },
  {
    "fields": {
      "changed_on": "2015-12-16T09:27:46.641Z",
      "objective": [
        1
      ],
      "desc": "Master data is the central reference of all processes with in the company. If this reference is not correct it will lead to inconsistencies for downstream processes such as manufacturing, accounting , etc",
      "changed_by": 1,
      "audit": 1,
      "title": "Incorrect Master data"
    },
    "model": "audits.risk",
    "pk": 4
  },
  {
    "fields": {
      "changed_on": "2015-12-16T09:48:46.267Z",
      "desc": "The manager in charge of inventory does weekly checks of high value items and monthly checks of lower value items.",
      "changed_by": 1,
      "risk": [
        1
      ],
      "audit": 1,
      "control_type": "KY",
      "title": "Weekly and Monthly stock checks"
    },
    "model": "audits.control",
    "pk": 1
  },
  {
    "fields": {
      "changed_on": "2015-12-16T09:43:59.305Z",
      "desc": "Defects that are to be returned are processed on a weekly basis. ",
      "changed_by": 1,
      "risk": [
        2
      ],
      "audit": 1,
      "control_type": "KY",
      "title": "Returns are weekly processed"
    },
    "model": "audits.control",
    "pk": 2
  },
  {
    "fields": {
      "changed_on": "2015-12-16T09:44:48.256Z",
      "desc": "The warehouse has a specified area where the returns and defects are kept. This area is to be cleared on a weekly basis.",
      "changed_by": 1,
      "risk": [
        2
      ],
      "audit": 1,
      "control_type": "KY",
      "title": "Returns area in warehouse is checked"
    },
    "model": "audits.control",
    "pk": 3
  },
  {
    "fields": {
      "changed_on": "2015-12-16T09:46:24.343Z",
      "desc": "All POs are authorised according to a authorisation matrix. The number of signatures are to be checked before the PO is released and entered into the system",
      "changed_by": 1,
      "risk": [
        3
      ],
      "audit": 1,
      "control_type": "KY",
      "title": "All POs are authorised"
    },
    "model": "audits.control",
    "pk": 4
  },
  {
    "fields": {
      "changed_on": "2015-12-16T09:47:41.195Z",
      "desc": "All changes to the master data is authorised. There are two managers who will authorise master data changes in each department.",
      "changed_by": 1,
      "risk": [
        4
      ],
      "audit": 1,
      "control_type": "KY",
      "title": "Changes to Master data is authorised"
    },
    "model": "audits.control",
    "pk": 5
  },
  {
    "fields": {
      "changed_on": "2015-12-16T10:44:51.114Z",
      "changed_by": 1,
      "result_desc": "All the stock verification reports for the period was found to be duly signed and dated.",
      "desc": "Obtain the weekly and month stock verification report. Take a sample for the audit testing period. Ensure that the required managers have signed off on these reports. ",
      "result": "PS",
      "audit": 1,
      "control": [
        1
      ],
      "title": "Stock verification report"
    },
    "model": "audits.test",
    "pk": 1
  },
  {
    "fields": {
      "changed_on": "2015-12-16T10:44:09.000Z",
      "changed_by": 1,
      "result_desc": "All returns for the period were found to be processed on time. The physical inspection of the returns area in the warehouse was found to have items that were placed there less than a week ago.",
      "desc": "Obtain the list of returns that were processed for the audit testing period. Check to see if the returns date were done weekly and that there are no gaps.\r\nCheck to ensure that the returns were moved to the returns area in the warehouse. Ask to inspect this area.",
      "result": "PS",
      "audit": 1,
      "control": [
        2,
        3
      ],
      "title": "Returns process list"
    },
    "model": "audits.test",
    "pk": 2
  },
  {
    "fields": {
      "changed_on": "2015-12-16T10:42:47.420Z",
      "changed_by": 1,
      "result_desc": "There were 378 POs that were created during the period. All POs from the sample were duly signed and dated",
      "desc": "Obtain a list of POs for the period of testing. Ensure that the POs are all authorised and the authorisation is according to the authorisation matrix of the department.",
      "result": "PS",
      "audit": 1,
      "control": [
        4
      ],
      "title": "Check POs for authorisation"
    },
    "model": "audits.test",
    "pk": 3
  },
  {
    "fields": {
      "changed_on": "2015-12-16T10:39:53.846Z",
      "changed_by": 1,
      "result_desc": "For the testing period, there were 30 master data changes. Of these 1 of the changes was found not to have any authorisation. There was no track that this change was even sent to a manager for change.",
      "desc": "Obtain a list of all master data changes for the period under testing. Check to ensure that all changes are authorised by atleast 2 managers.",
      "result": "FL",
      "audit": 1,
      "control": [
        5
      ],
      "title": "Obtain changes to the Master data"
    },
    "model": "audits.test",
    "pk": 4
  },
  {
    "fields": {
      "test": 4,
      "changed_on": "2015-12-16T10:41:34.679Z",
      "changed_by": 1,
      "title": "Master data authorisation",
      "desc": "There was one master data authorisation that was found not to have the correct signatures. It was also noted that this change did not seem to have been sent to a manager for authorisation"
    },
    "model": "audits.finding",
    "pk": 1
  },
  {
    "fields": {
      "content": "<!DOCTYPE HTML PUBLIC \"-//W3C//DTD HTML 4.01 Transitional//EN\" \"http://www.w3.org/TR/html4/loose.dtd\">\n<html>\n    <head>\n        <title>My Title</title>\n        <style type=\"text/css\">\n            @page {\n                size: {{ pagesize }};\n                margin: 1cm;\n                @frame footer {\n                    -pdf-frame-content: footerContent;\n                    bottom: 0cm;\n                    margin-left: 9cm;\n                    margin-right: 9cm;\n                    height: 1cm;\n                }\n            }\n        </style>\n    </head>\n    <body>\n        <div class=\"col-md-12\">\n    <div class=\"well\">\n        <img src=\"http://www.onyxos.com/onyx_tpl/mini_logo_onyx.png\" class=\"img-responsive img-rounded\" alt=\"Responsive image\">\n        <p class=\"pull-right\"> Header section goes here </p>\n    </div>\n    <div class=\"col-md-4\">\n    </div>\n    <div class=\"col-md-8\">\n        <div class=\"well\"><p> Audit Report </p></div>\n        <table class=\"table table-bordered\">\n          <thead>\n            <tr>\n              <th>Audtit Name</th>\n              <th>Audtit Description</th>\n              <th>Audtit Start</th>\n              <th>Audtit End</th>\n              <th>Audtitors List</th>\n              <th>Number of controls</th>\n              <th>Number of tests passed</th>\n              <th>Total number of tests</th>\n            </tr>\n          </thead>\n          <tbody>\n            <tr>\n              <td>{{ object.title }}</td>\n              <td>{{ object.description }}</td>\n              <td>2015</td>\n              <td>2014</td>\n              <td>Auditors</td>\n              <td>{{ object.control_audit.all.count }}</td>\n              <td>{{ test_passed_count }}</td>\n              <td>{{ object.test_audit.all.count }}</td>\n            </tr>\n          </tbody>\n        </table>\n        <table class=\"table table-bordered\">\n          <thead>\n            <tr>\n              <th>Process Name</th>\n              <th>Process Description</th>\n            </tr>\n          </thead>\n          <tbody>\n            {% for obj in object.process_audit.all %}\n            <tr>\n              <td>{{ obj.title }}</td>\n              <td>{{ obj.desc }}</td>\n            </tr>\n            {% endfor %}\n          </tbody>\n        </table>\n        <table class=\"table table-bordered\">\n          <thead>\n            <tr>\n              <th>Objective Name</th>\n              <th>Objective Description</th>\n            </tr>\n          </thead>\n          <tbody>\n            {% for obj in object.objective_audit.all %}\n            <tr>\n              <td>{{ obj.title }}</td>\n              <td>{{ obj.desc }}</td>\n            </tr>\n            {% endfor %}\n          </tbody>\n        </table>\n        <table class=\"table table-bordered\">\n          <thead>\n            <tr>\n              <th>Risk Name</th>\n              <th>Risk Description</th>\n            </tr>\n          </thead>\n          <tbody>\n            {% for obj in object.risk_audit.all %}\n            <tr>\n              <td>{{ obj.title }}</td>\n              <td>{{ obj.desc }}</td>\n            </tr>\n            {% endfor %}\n          </tbody>\n        </table>\n        <table class=\"table table-bordered\">\n          <thead>\n            <tr>\n              <th>Control Name</th>\n              <th>Control Description</th>\n            </tr>\n          </thead>\n          <tbody>\n            {% for obj in object.control_audit.all %}\n            <tr>\n              <td>{{ obj.title }}</td>\n              <td>{{ obj.desc }}</td>\n            </tr>\n            {% endfor %}\n          </tbody>\n        </table>\n        <p> Passed Tests</p>\n        <table class=\"table table-bordered\">\n          <thead>\n            <tr>\n              <th>Test Name</th>\n              <th>Test Description</th>\n              <th>Test result description</th>\n            </tr>\n          </thead>\n          <tbody>\n            {% for obj in test_passed %}\n            <tr>\n              <td>{{ obj.title }}</td>\n              <td>{{ obj.desc }}</td>\n              <td>{{ obj.result_desc }}</td>\n            </tr>\n            {% endfor %}\n          </tbody>\n        </table>\n        <p> Failed Tests</p>\n        <table class=\"table table-bordered\">\n          <thead>\n            <tr>\n              <th>Test Name</th>\n              <th>Test Description</th>\n              <th>Test result description</th>\n            </tr>\n          </thead>\n          <tbody>\n            {% for obj in test_failed %}\n            <tr>\n              <td>{{ obj.title }}</td>\n              <td>{{ obj.desc }}</td>\n              <td>{{ obj.result_desc }}</td>\n            </tr>\n            {% endfor %}\n          </tbody>\n        </table>\n    </div>\n    <div class=\"col-md-12 well\">\n        <p> Footer section goes here </p>\n    </div>\n</div>\n        <div id=\"footerContent\">\n            {%block page_foot%}\n                Page <pdf:pagenumber>\n            {%endblock%}\n        </div>\n    </body>\n</html>",
      "title": "Normal Template",
      "template": "template_8.html"
    },
    "model": "audits.pdftemplates",
    "pk": 1
  },
  {
    "fields": {
      "content": "<!DOCTYPE html>\n<html lang=\"en\">\n  <head>\n    <meta charset=\"utf-8\">\n    <meta http-equiv=\"Content-Type\" content=\"text/html; charset=utf-8\">\n    <meta http-equiv=\"X-UA-Compatible\" content=\"IE=edge\">\n    <meta name=\"viewport\" content=\"width=device-width, initial-scale=1\">\n    <!-- The above 3 meta tags *must* come first in the head; any other head content must come *after* these tags -->\n    <title>Bootstrap 101 Template</title>\n\n    <!-- Bootstrap -->\n    <link rel=\"stylesheet\" href=\"https://maxcdn.bootstrapcdn.com/bootstrap/3.3.5/css/bootstrap.min.css\">\n\n    <!-- HTML5 shim and Respond.js for IE8 support of HTML5 elements and media queries -->\n    <!-- WARNING: Respond.js doesn't work if you view the page via file:// -->\n    <!--[if lt IE 9]>\n      <script src=\"https://oss.maxcdn.com/html5shiv/3.7.2/html5shiv.min.js\"></script>\n      <script src=\"https://oss.maxcdn.com/respond/1.4.2/respond.min.js\"></script>\n    <![endif]-->\n  </head>\n  <body>\n    <div class=\"col-md-12\">\n    <div class=\"well\">\n        <img src=\"http://www.onyxos.com/onyx_tpl/mini_logo_onyx.png\" class=\"img-responsive img-rounded\" alt=\"Responsive image\">\n        <p class=\"pull-right\"> Header section goes here </p>\n    </div>\n    <div class=\"col-md-4\">\n    </div>\n    <div class=\"col-md-8\">\n        <div class=\"well\"><p> Audit Report </p></div>\n        <table class=\"table table-bordered\">\n          <thead>\n            <tr>\n              <th>Audit Name</th>\n              <th>Audit Description</th>\n              <th>Audit Start</th>\n              <th>Audit End</th>\n              <th>Auditors List</th>\n              <th>Number of controls</th>\n              <th>Number of tests passed</th>\n              <th>Total number of tests</th>\n            </tr>\n          </thead>\n          <tbody>\n            <tr>\n              <td>{{ object.title }}</td>\n              <td>{{ object.description }}</td>\n              <td>2015</td>\n              <td>2014</td>\n              <td>Auditors</td>\n              <td>{{ object.control_audit.all.count }}</td>\n              <td>{{ test_passed_count }}</td>\n              <td>{{ object.test_audit.all.count }}</td>\n            </tr>\n          </tbody>\n        </table>\n        <table class=\"table table-bordered\">\n          <thead>\n            <tr>\n              <th>Process Name</th>\n              <th>Process Description</th>\n            </tr>\n          </thead>\n          <tbody>\n            {% for obj in object.process_audit.all %}\n            <tr>\n              <td>{{ obj.title }}</td>\n              <td>{{ obj.desc }}</td>\n            </tr>\n            {% endfor %}\n          </tbody>\n        </table>\n        <table class=\"table table-bordered\">\n          <thead>\n            <tr>\n              <th>Objective Name</th>\n              <th>Objective Description</th>\n            </tr>\n          </thead>\n          <tbody>\n            {% for obj in object.objective_audit.all %}\n            <tr>\n              <td>{{ obj.title }}</td>\n              <td>{{ obj.desc }}</td>\n            </tr>\n            {% endfor %}\n          </tbody>\n        </table>\n        <table class=\"table table-bordered\">\n          <thead>\n            <tr>\n              <th>Risk Name</th>\n              <th>Risk Description</th>\n            </tr>\n          </thead>\n          <tbody>\n            {% for obj in object.risk_audit.all %}\n            <tr>\n              <td>{{ obj.title }}</td>\n              <td>{{ obj.desc }}</td>\n            </tr>\n            {% endfor %}\n          </tbody>\n        </table>\n        <table class=\"table table-bordered\">\n          <thead>\n            <tr>\n              <th>Control Name</th>\n              <th>Control Description</th>\n            </tr>\n          </thead>\n          <tbody>\n            {% for obj in object.control_audit.all %}\n            <tr>\n              <td>{{ obj.title }}</td>\n              <td>{{ obj.desc }}</td>\n            </tr>\n            {% endfor %}\n          </tbody>\n        </table>\n        <p> Passed Tests</p>\n        <table class=\"table table-bordered\">\n          <thead>\n            <tr>\n              <th>Test Name</th>\n              <th>Test Description</th>\n              <th>Test result description</th>\n            </tr>\n          </thead>\n          <tbody>\n            {% for obj in test_passed %}\n            <tr>\n              <td>{{ obj.title }}</td>\n              <td>{{ obj.desc }}</td>\n              <td>{{ obj.result_desc }}</td>\n            </tr>\n            {% endfor %}\n          </tbody>\n        </table>\n        <p> Failed Tests</p>\n        <table class=\"table table-bordered\">\n          <thead>\n            <tr>\n              <th>Test Name</th>\n              <th>Test Description</th>\n              <th>Test result description</th>\n            </tr>\n          </thead>\n          <tbody>\n            {% for obj in test_failed %}\n            <tr>\n              <td>{{ obj.title }}</td>\n              <td>{{ obj.desc }}</td>\n              <td>{{ obj.result_desc }}</td>\n            </tr>\n            {% endfor %}\n          </tbody>\n        </table>\n    </div>\n    <div class=\"col-md-12 well\">\n        <p> Footer section goes here </p>\n    </div>\n</div>\n    <!-- jQuery (necessary for Bootstrap's JavaScript plugins) -->\n  </body>\n</html>\n",
      "title": "Bootstrap template",
      "template": "template_10.html"
    },
    "model": "audits.pdftemplates",
    "pk": 2
  },
  {
    "fields": {
      "content": "<!DOCTYPE HTML PUBLIC \"-//W3C//DTD HTML 4.01 Transitional//EN\" \"http://www.w3.org/TR/html4/loose.dtd\">\n<html>\n    <head>\n        <title>Generated Audit Report</title>\n        <style type=\"text/css\">\n            @page {\n                size: {{ pagesize }};\n                margin: 1cm;\n                @frame footer {\n                    -pdf-frame-content: footerContent;\n                    bottom: 0cm;\n                    margin-left: 9cm;\n                    margin-right: 9cm;\n                    height: 1cm;\n                }\n            }\n        </style>\n    </head>\n    <body>\n<div class=\"col-md-12\">\n    <div class=\"well\">\n        <img src=\"http://www.arambankudyil.net/images/temp/main_logo2.png\" alt=\"Responsive image\">\n        <p class=\"pull-right\"> Report by Internal Audit Department </p>\n    </div>\n    <div class=\"col-md-4\">\n    </div>\n    <div class=\"col-md-8\">\n        <div class=\"well\"><h3> {{ object.title }} Audit Report </h3></div>\n        <div class=\"well\"><p> {{ object.desc }} </p></div>\n        <table class=\"table table-bordered\" border=\"1\">\n          <thead>\n            <tr>\n              <th>Start Date</th>\n              <th>End Date</th>\n              <th>Auditors List</th>\n              <th>Number of controls</th>\n              <th>Number of tests passed</th>\n              <th>Total number of tests</th>\n            </tr>\n          </thead>\n          <tbody>\n            <tr>\n              <td>{{ object.start_date }}</td>\n              <td>{{ object.end_date }}</td>\n              <td>Auditors</td>\n              <td>{{ object.control_audit.all.count }}</td>\n              <td>{{ test_passed_count }}</td>\n              <td>{{ object.test_audit.all.count }}</td>\n            </tr>\n          </tbody>\n        </table>\n        <table class=\"table table-bordered\">\n          <thead>\n            <tr>\n              <th>Process Name</th>\n              <th>Process Description</th>\n            </tr>\n          </thead>\n          <tbody>\n            {% for obj in object.process_audit.all %}\n            <tr>\n              <td>{{ obj.title }}</td>\n              <td>{{ obj.desc }}</td>\n            </tr>\n            {% endfor %}\n          </tbody>\n        </table>\n        <table class=\"table table-bordered\">\n          <thead>\n            <tr>\n              <th>Objective Name</th>\n              <th>Objective Description</th>\n            </tr>\n          </thead>\n          <tbody>\n            {% for obj in object.objective_audit.all %}\n            <tr>\n              <td>{{ obj.title }}</td>\n              <td>{{ obj.desc }}</td>\n            </tr>\n            {% endfor %}\n          </tbody>\n        </table>\n        <table class=\"table table-bordered\">\n          <thead>\n            <tr>\n              <th>Risk Name</th>\n              <th>Risk Description</th>\n            </tr>\n          </thead>\n          <tbody>\n            {% for obj in object.risk_audit.all %}\n            <tr>\n              <td>{{ obj.title }}</td>\n              <td>{{ obj.desc }}</td>\n            </tr>\n            {% endfor %}\n          </tbody>\n        </table>\n        <table class=\"table table-bordered\">\n          <thead>\n            <tr>\n              <th>Control Name</th>\n              <th>Control Description</th>\n            </tr>\n          </thead>\n          <tbody>\n            {% for obj in object.control_audit.all %}\n            <tr>\n              <td>{{ obj.title }}</td>\n              <td>{{ obj.desc }}</td>\n            </tr>\n            {% endfor %}\n          </tbody>\n        </table>\n        <h4>Failed Tests</h4>\n        <table class=\"table table-bordered\">\n          <thead>\n            <tr>\n              <th>Test Name</th>\n              <th>Test Description</th>\n              <th>Test result description</th>\n            </tr>\n          </thead>\n          <tbody>\n            {% for obj in test_failed %}\n            <tr>\n              <td>{{ obj.title }}</td>\n              <td>{{ obj.desc }}</td>\n              <td>{{ obj.result_desc }}</td>\n            </tr>\n            {% endfor %}\n          </tbody>\n        </table>\n        <h4> Passed Tests</h4>\n        <table class=\"table table-bordered\">\n          <thead>\n            <tr>\n              <th>Test Name</th>\n              <th>Test Description</th>\n              <th>Test result description</th>\n            </tr>\n          </thead>\n          <tbody>\n            {% for obj in test_passed %}\n            <tr>\n              <td>{{ obj.title }}</td>\n              <td>{{ obj.desc }}</td>\n              <td>{{ obj.result_desc }}</td>\n            </tr>\n            {% endfor %}\n          </tbody>\n        </table>\n    </div>\n    <div class=\"col-md-12 well\">\n        <p>Create with Envelop http://www.grcenvelop.com</p>\n    </div>\n</div>\n</body>\n</html>",
      "title": "Letter",
      "template": "template_12.html"
    },
    "model": "audits.pdftemplates",
    "pk": 3
  }
]
